{
  "ABIRoot": {
    "kind": "Root",
    "name": "TopLevel",
    "printedName": "TopLevel",
    "children": [
      {
        "kind": "Import",
        "name": "UIKit",
        "printedName": "UIKit",
        "declKind": "Import",
        "moduleName": "PLMarkdown",
        "declAttributes": [
          "RawDocComment"
        ]
      },
      {
        "kind": "Import",
        "name": "Libcmark",
        "printedName": "Libcmark",
        "declKind": "Import",
        "moduleName": "PLMarkdown"
      },
      {
        "kind": "TypeDecl",
        "name": "PLStyleSheetMarkdown",
        "printedName": "PLStyleSheetMarkdown",
        "children": [
          {
            "kind": "Var",
            "name": "markdownString",
            "printedName": "markdownString",
            "children": [
              {
                "kind": "TypeNominal",
                "name": "String",
                "printedName": "Swift.String",
                "usr": "s:SS"
              }
            ],
            "declKind": "Var",
            "usr": "s:10PLMarkdown20PLStyleSheetMarkdownV14markdownStringSSvp",
            "mangledName": "$s10PLMarkdown20PLStyleSheetMarkdownV14markdownStringSSvp",
            "moduleName": "PLMarkdown",
            "declAttributes": [
              "HasStorage",
              "AccessControl",
              "RawDocComment"
            ],
            "hasStorage": true,
            "accessors": [
              {
                "kind": "Accessor",
                "name": "Get",
                "printedName": "Get()",
                "children": [
                  {
                    "kind": "TypeNominal",
                    "name": "String",
                    "printedName": "Swift.String",
                    "usr": "s:SS"
                  }
                ],
                "declKind": "Accessor",
                "usr": "s:10PLMarkdown20PLStyleSheetMarkdownV14markdownStringSSvg",
                "mangledName": "$s10PLMarkdown20PLStyleSheetMarkdownV14markdownStringSSvg",
                "moduleName": "PLMarkdown",
                "implicit": true,
                "accessorKind": "get"
              },
              {
                "kind": "Accessor",
                "name": "Set",
                "printedName": "Set()",
                "children": [
                  {
                    "kind": "TypeNominal",
                    "name": "Void",
                    "printedName": "()"
                  },
                  {
                    "kind": "TypeNominal",
                    "name": "String",
                    "printedName": "Swift.String",
                    "usr": "s:SS"
                  }
                ],
                "declKind": "Accessor",
                "usr": "s:10PLMarkdown20PLStyleSheetMarkdownV14markdownStringSSvs",
                "mangledName": "$s10PLMarkdown20PLStyleSheetMarkdownV14markdownStringSSvs",
                "moduleName": "PLMarkdown",
                "implicit": true,
                "accessorKind": "set"
              },
              {
                "kind": "Accessor",
                "name": "Modify",
                "printedName": "Modify()",
                "children": [
                  {
                    "kind": "TypeNominal",
                    "name": "Void",
                    "printedName": "()"
                  }
                ],
                "declKind": "Accessor",
                "usr": "s:10PLMarkdown20PLStyleSheetMarkdownV14markdownStringSSvM",
                "mangledName": "$s10PLMarkdown20PLStyleSheetMarkdownV14markdownStringSSvM",
                "moduleName": "PLMarkdown",
                "implicit": true,
                "accessorKind": "_modify"
              }
            ]
          },
          {
            "kind": "Constructor",
            "name": "init",
            "printedName": "init(markdownString:)",
            "children": [
              {
                "kind": "TypeNominal",
                "name": "PLStyleSheetMarkdown",
                "printedName": "PLMarkdown.PLStyleSheetMarkdown",
                "usr": "s:10PLMarkdown20PLStyleSheetMarkdownV"
              },
              {
                "kind": "TypeNominal",
                "name": "String",
                "printedName": "Swift.String",
                "usr": "s:SS"
              }
            ],
            "declKind": "Constructor",
            "usr": "s:10PLMarkdown20PLStyleSheetMarkdownV14markdownStringACSS_tcfc",
            "mangledName": "$s10PLMarkdown20PLStyleSheetMarkdownV14markdownStringACSS_tcfc",
            "moduleName": "PLMarkdown",
            "declAttributes": [
              "AccessControl",
              "RawDocComment"
            ],
            "init_kind": "Designated"
          },
          {
            "kind": "Function",
            "name": "toHTML",
            "printedName": "toHTML(_:)",
            "children": [
              {
                "kind": "TypeNominal",
                "name": "String",
                "printedName": "Swift.String",
                "usr": "s:SS"
              },
              {
                "kind": "TypeNominal",
                "name": "PLMarkdownOptions",
                "printedName": "PLMarkdown.PLMarkdownOptions",
                "hasDefaultArg": true,
                "usr": "s:10PLMarkdown0A7OptionsV"
              }
            ],
            "declKind": "Func",
            "usr": "s:10PLMarkdown20PLStyleSheetMarkdownV6toHTMLySSAA0A7OptionsVKF",
            "mangledName": "$s10PLMarkdown20PLStyleSheetMarkdownV6toHTMLySSAA0A7OptionsVKF",
            "moduleName": "PLMarkdown",
            "declAttributes": [
              "AccessControl"
            ],
            "throwing": true,
            "funcSelfKind": "NonMutating"
          },
          {
            "kind": "Function",
            "name": "toAttributedString",
            "printedName": "toAttributedString(_:stylesheet:)",
            "children": [
              {
                "kind": "TypeNominal",
                "name": "NSAttributedString",
                "printedName": "Foundation.NSAttributedString",
                "usr": "c:objc(cs)NSAttributedString"
              },
              {
                "kind": "TypeNominal",
                "name": "PLMarkdownOptions",
                "printedName": "PLMarkdown.PLMarkdownOptions",
                "hasDefaultArg": true,
                "usr": "s:10PLMarkdown0A7OptionsV"
              },
              {
                "kind": "TypeNominal",
                "name": "Optional",
                "printedName": "Swift.String?",
                "children": [
                  {
                    "kind": "TypeNominal",
                    "name": "String",
                    "printedName": "Swift.String",
                    "usr": "s:SS"
                  }
                ],
                "hasDefaultArg": true,
                "usr": "s:Sq"
              }
            ],
            "declKind": "Func",
            "usr": "s:10PLMarkdown20PLStyleSheetMarkdownV18toAttributedString_10stylesheetSo012NSAttributedG0CAA0A7OptionsV_SSSgtKF",
            "mangledName": "$s10PLMarkdown20PLStyleSheetMarkdownV18toAttributedString_10stylesheetSo012NSAttributedG0CAA0A7OptionsV_SSSgtKF",
            "moduleName": "PLMarkdown",
            "declAttributes": [
              "AccessControl"
            ],
            "throwing": true,
            "funcSelfKind": "NonMutating"
          }
        ],
        "declKind": "Struct",
        "usr": "s:10PLMarkdown20PLStyleSheetMarkdownV",
        "mangledName": "$s10PLMarkdown20PLStyleSheetMarkdownV",
        "moduleName": "PLMarkdown",
        "declAttributes": [
          "AccessControl"
        ]
      },
      {
        "kind": "TypeDecl",
        "name": "PLMarkdownASTRenderer",
        "printedName": "PLMarkdownASTRenderer",
        "children": [
          {
            "kind": "Function",
            "name": "stringToAST",
            "printedName": "stringToAST(_:options:)",
            "children": [
              {
                "kind": "TypeNominal",
                "name": "UnsafeMutablePointer",
                "printedName": "Swift.UnsafeMutablePointer<Libcmark.cmark_node>",
                "children": [
                  {
                    "kind": "TypeNominal",
                    "name": "cmark_node",
                    "printedName": "Libcmark.cmark_node",
                    "usr": "c:@S@cmark_node"
                  }
                ],
                "usr": "s:Sp"
              },
              {
                "kind": "TypeNominal",
                "name": "String",
                "printedName": "Swift.String",
                "usr": "s:SS"
              },
              {
                "kind": "TypeNominal",
                "name": "PLMarkdownOptions",
                "printedName": "PLMarkdown.PLMarkdownOptions",
                "hasDefaultArg": true,
                "usr": "s:10PLMarkdown0A7OptionsV"
              }
            ],
            "declKind": "Func",
            "usr": "s:10PLMarkdown0A11ASTRendererV11stringToAST_7optionsSpySo10cmark_nodeVGSS_AA0A7OptionsVtKFZ",
            "mangledName": "$s10PLMarkdown0A11ASTRendererV11stringToAST_7optionsSpySo10cmark_nodeVGSS_AA0A7OptionsVtKFZ",
            "moduleName": "PLMarkdown",
            "static": true,
            "declAttributes": [
              "AccessControl",
              "RawDocComment"
            ],
            "throwing": true,
            "funcSelfKind": "NonMutating"
          },
          {
            "kind": "Constructor",
            "name": "init",
            "printedName": "init()",
            "children": [
              {
                "kind": "TypeNominal",
                "name": "PLMarkdownASTRenderer",
                "printedName": "PLMarkdown.PLMarkdownASTRenderer",
                "usr": "s:10PLMarkdown0A11ASTRendererV"
              }
            ],
            "declKind": "Constructor",
            "usr": "s:10PLMarkdown0A11ASTRendererVACycfc",
            "mangledName": "$s10PLMarkdown0A11ASTRendererVACycfc",
            "moduleName": "PLMarkdown",
            "implicit": true,
            "init_kind": "Designated"
          }
        ],
        "declKind": "Struct",
        "usr": "s:10PLMarkdown0A11ASTRendererV",
        "mangledName": "$s10PLMarkdown0A11ASTRendererV",
        "moduleName": "PLMarkdown",
        "declAttributes": [
          "AccessControl"
        ]
      },
      {
        "kind": "TypeDecl",
        "name": "PLMarkdownOptions",
        "printedName": "PLMarkdownOptions",
        "children": [
          {
            "kind": "Var",
            "name": "rawValue",
            "printedName": "rawValue",
            "children": [
              {
                "kind": "TypeNominal",
                "name": "Int32",
                "printedName": "Swift.Int32",
                "usr": "s:s5Int32V"
              }
            ],
            "declKind": "Var",
            "usr": "s:10PLMarkdown0A7OptionsV8rawValues5Int32Vvp",
            "mangledName": "$s10PLMarkdown0A7OptionsV8rawValues5Int32Vvp",
            "moduleName": "PLMarkdown",
            "declAttributes": [
              "HasStorage",
              "AccessControl",
              "RawDocComment"
            ],
            "isLet": true,
            "hasStorage": true,
            "accessors": [
              {
                "kind": "Accessor",
                "name": "Get",
                "printedName": "Get()",
                "children": [
                  {
                    "kind": "TypeNominal",
                    "name": "Int32",
                    "printedName": "Swift.Int32",
                    "usr": "s:s5Int32V"
                  }
                ],
                "declKind": "Accessor",
                "usr": "s:10PLMarkdown0A7OptionsV8rawValues5Int32Vvg",
                "mangledName": "$s10PLMarkdown0A7OptionsV8rawValues5Int32Vvg",
                "moduleName": "PLMarkdown",
                "implicit": true,
                "accessorKind": "get"
              }
            ]
          },
          {
            "kind": "Constructor",
            "name": "init",
            "printedName": "init(rawValue:)",
            "children": [
              {
                "kind": "TypeNominal",
                "name": "PLMarkdownOptions",
                "printedName": "PLMarkdown.PLMarkdownOptions",
                "usr": "s:10PLMarkdown0A7OptionsV"
              },
              {
                "kind": "TypeNominal",
                "name": "Int32",
                "printedName": "Swift.Int32",
                "usr": "s:s5Int32V"
              }
            ],
            "declKind": "Constructor",
            "usr": "s:10PLMarkdown0A7OptionsV8rawValueACs5Int32V_tcfc",
            "mangledName": "$s10PLMarkdown0A7OptionsV8rawValueACs5Int32V_tcfc",
            "moduleName": "PLMarkdown",
            "declAttributes": [
              "AccessControl",
              "RawDocComment"
            ],
            "init_kind": "Designated"
          },
          {
            "kind": "Var",
            "name": "default",
            "printedName": "default",
            "children": [
              {
                "kind": "TypeNominal",
                "name": "PLMarkdownOptions",
                "printedName": "PLMarkdown.PLMarkdownOptions",
                "usr": "s:10PLMarkdown0A7OptionsV"
              }
            ],
            "declKind": "Var",
            "usr": "s:10PLMarkdown0A7OptionsV7defaultACvpZ",
            "mangledName": "$s10PLMarkdown0A7OptionsV7defaultACvpZ",
            "moduleName": "PLMarkdown",
            "static": true,
            "declAttributes": [
              "HasInitialValue",
              "HasStorage",
              "AccessControl",
              "RawDocComment"
            ],
            "isLet": true,
            "hasStorage": true,
            "accessors": [
              {
                "kind": "Accessor",
                "name": "Get",
                "printedName": "Get()",
                "children": [
                  {
                    "kind": "TypeNominal",
                    "name": "PLMarkdownOptions",
                    "printedName": "PLMarkdown.PLMarkdownOptions",
                    "usr": "s:10PLMarkdown0A7OptionsV"
                  }
                ],
                "declKind": "Accessor",
                "usr": "s:10PLMarkdown0A7OptionsV7defaultACvgZ",
                "mangledName": "$s10PLMarkdown0A7OptionsV7defaultACvgZ",
                "moduleName": "PLMarkdown",
                "static": true,
                "implicit": true,
                "accessorKind": "get"
              }
            ]
          }
        ],
        "declKind": "Struct",
        "usr": "s:10PLMarkdown0A7OptionsV",
        "mangledName": "$s10PLMarkdown0A7OptionsV",
        "moduleName": "PLMarkdown",
        "declAttributes": [
          "AccessControl"
        ],
        "conformances": [
          {
            "kind": "Conformance",
            "name": "OptionSet",
            "printedName": "OptionSet",
            "children": [
              {
                "kind": "TypeWitness",
                "name": "Element",
                "printedName": "Element",
                "children": [
                  {
                    "kind": "TypeNominal",
                    "name": "PLMarkdownOptions",
                    "printedName": "PLMarkdown.PLMarkdownOptions",
                    "usr": "s:10PLMarkdown0A7OptionsV"
                  }
                ]
              }
            ],
            "usr": "s:s9OptionSetP",
            "mangledName": "$ss9OptionSetP"
          },
          {
            "kind": "Conformance",
            "name": "RawRepresentable",
            "printedName": "RawRepresentable",
            "children": [
              {
                "kind": "TypeWitness",
                "name": "RawValue",
                "printedName": "RawValue",
                "children": [
                  {
                    "kind": "TypeNominal",
                    "name": "Int32",
                    "printedName": "Swift.Int32",
                    "usr": "s:s5Int32V"
                  }
                ]
              }
            ],
            "usr": "s:SY",
            "mangledName": "$sSY"
          },
          {
            "kind": "Conformance",
            "name": "SetAlgebra",
            "printedName": "SetAlgebra",
            "children": [
              {
                "kind": "TypeWitness",
                "name": "Element",
                "printedName": "Element",
                "children": [
                  {
                    "kind": "TypeNominal",
                    "name": "PLMarkdownOptions",
                    "printedName": "PLMarkdown.PLMarkdownOptions",
                    "usr": "s:10PLMarkdown0A7OptionsV"
                  }
                ]
              }
            ],
            "usr": "s:s10SetAlgebraP",
            "mangledName": "$ss10SetAlgebraP"
          },
          {
            "kind": "Conformance",
            "name": "Equatable",
            "printedName": "Equatable",
            "usr": "s:SQ",
            "mangledName": "$sSQ"
          },
          {
            "kind": "Conformance",
            "name": "ExpressibleByArrayLiteral",
            "printedName": "ExpressibleByArrayLiteral",
            "children": [
              {
                "kind": "TypeWitness",
                "name": "ArrayLiteralElement",
                "printedName": "ArrayLiteralElement",
                "children": [
                  {
                    "kind": "TypeNominal",
                    "name": "PLMarkdownOptions",
                    "printedName": "PLMarkdown.PLMarkdownOptions",
                    "usr": "s:10PLMarkdown0A7OptionsV"
                  }
                ]
              }
            ],
            "usr": "s:s25ExpressibleByArrayLiteralP",
            "mangledName": "$ss25ExpressibleByArrayLiteralP"
          }
        ]
      },
      {
        "kind": "TypeDecl",
        "name": "PLMarkdownErrors",
        "printedName": "PLMarkdownErrors",
        "children": [
          {
            "kind": "Var",
            "name": "markdownToASTError",
            "printedName": "markdownToASTError",
            "children": [
              {
                "kind": "TypeFunc",
                "name": "Function",
                "printedName": "(PLMarkdown.PLMarkdownErrors.Type) -> PLMarkdown.PLMarkdownErrors",
                "children": [
                  {
                    "kind": "TypeNominal",
                    "name": "PLMarkdownErrors",
                    "printedName": "PLMarkdown.PLMarkdownErrors",
                    "usr": "s:10PLMarkdown0A6ErrorsO"
                  },
                  {
                    "kind": "TypeNominal",
                    "name": "Metatype",
                    "printedName": "PLMarkdown.PLMarkdownErrors.Type",
                    "children": [
                      {
                        "kind": "TypeNominal",
                        "name": "PLMarkdownErrors",
                        "printedName": "PLMarkdown.PLMarkdownErrors",
                        "usr": "s:10PLMarkdown0A6ErrorsO"
                      }
                    ]
                  }
                ]
              }
            ],
            "declKind": "EnumElement",
            "usr": "s:10PLMarkdown0A6ErrorsO18markdownToASTErroryA2CmF",
            "mangledName": "$s10PLMarkdown0A6ErrorsO18markdownToASTErroryA2CmF",
            "moduleName": "PLMarkdown",
            "declAttributes": [
              "RawDocComment"
            ]
          },
          {
            "kind": "Var",
            "name": "astRenderingError",
            "printedName": "astRenderingError",
            "children": [
              {
                "kind": "TypeFunc",
                "name": "Function",
                "printedName": "(PLMarkdown.PLMarkdownErrors.Type) -> PLMarkdown.PLMarkdownErrors",
                "children": [
                  {
                    "kind": "TypeNominal",
                    "name": "PLMarkdownErrors",
                    "printedName": "PLMarkdown.PLMarkdownErrors",
                    "usr": "s:10PLMarkdown0A6ErrorsO"
                  },
                  {
                    "kind": "TypeNominal",
                    "name": "Metatype",
                    "printedName": "PLMarkdown.PLMarkdownErrors.Type",
                    "children": [
                      {
                        "kind": "TypeNominal",
                        "name": "PLMarkdownErrors",
                        "printedName": "PLMarkdown.PLMarkdownErrors",
                        "usr": "s:10PLMarkdown0A6ErrorsO"
                      }
                    ]
                  }
                ]
              }
            ],
            "declKind": "EnumElement",
            "usr": "s:10PLMarkdown0A6ErrorsO17astRenderingErroryA2CmF",
            "mangledName": "$s10PLMarkdown0A6ErrorsO17astRenderingErroryA2CmF",
            "moduleName": "PLMarkdown",
            "declAttributes": [
              "RawDocComment"
            ]
          },
          {
            "kind": "Var",
            "name": "htmlDataConversionError",
            "printedName": "htmlDataConversionError",
            "children": [
              {
                "kind": "TypeFunc",
                "name": "Function",
                "printedName": "(PLMarkdown.PLMarkdownErrors.Type) -> PLMarkdown.PLMarkdownErrors",
                "children": [
                  {
                    "kind": "TypeNominal",
                    "name": "PLMarkdownErrors",
                    "printedName": "PLMarkdown.PLMarkdownErrors",
                    "usr": "s:10PLMarkdown0A6ErrorsO"
                  },
                  {
                    "kind": "TypeNominal",
                    "name": "Metatype",
                    "printedName": "PLMarkdown.PLMarkdownErrors.Type",
                    "children": [
                      {
                        "kind": "TypeNominal",
                        "name": "PLMarkdownErrors",
                        "printedName": "PLMarkdown.PLMarkdownErrors",
                        "usr": "s:10PLMarkdown0A6ErrorsO"
                      }
                    ]
                  }
                ]
              }
            ],
            "declKind": "EnumElement",
            "usr": "s:10PLMarkdown0A6ErrorsO23htmlDataConversionErroryA2CmF",
            "mangledName": "$s10PLMarkdown0A6ErrorsO23htmlDataConversionErroryA2CmF",
            "moduleName": "PLMarkdown",
            "declAttributes": [
              "RawDocComment"
            ]
          },
          {
            "kind": "Function",
            "name": "==",
            "printedName": "==(_:_:)",
            "children": [
              {
                "kind": "TypeNominal",
                "name": "Bool",
                "printedName": "Swift.Bool",
                "usr": "s:Sb"
              },
              {
                "kind": "TypeNominal",
                "name": "PLMarkdownErrors",
                "printedName": "PLMarkdown.PLMarkdownErrors",
                "usr": "s:10PLMarkdown0A6ErrorsO"
              },
              {
                "kind": "TypeNominal",
                "name": "PLMarkdownErrors",
                "printedName": "PLMarkdown.PLMarkdownErrors",
                "usr": "s:10PLMarkdown0A6ErrorsO"
              }
            ],
            "declKind": "Func",
            "usr": "s:10PLMarkdown0A6ErrorsO2eeoiySbAC_ACtFZ",
            "mangledName": "$s10PLMarkdown0A6ErrorsO2eeoiySbAC_ACtFZ",
            "moduleName": "PLMarkdown",
            "static": true,
            "implicit": true,
            "funcSelfKind": "NonMutating"
          },
          {
            "kind": "Var",
            "name": "hashValue",
            "printedName": "hashValue",
            "children": [
              {
                "kind": "TypeNominal",
                "name": "Int",
                "printedName": "Swift.Int",
                "usr": "s:Si"
              }
            ],
            "declKind": "Var",
            "usr": "s:10PLMarkdown0A6ErrorsO9hashValueSivp",
            "mangledName": "$s10PLMarkdown0A6ErrorsO9hashValueSivp",
            "moduleName": "PLMarkdown",
            "implicit": true,
            "accessors": [
              {
                "kind": "Accessor",
                "name": "Get",
                "printedName": "Get()",
                "children": [
                  {
                    "kind": "TypeNominal",
                    "name": "Int",
                    "printedName": "Swift.Int",
                    "usr": "s:Si"
                  }
                ],
                "declKind": "Accessor",
                "usr": "s:10PLMarkdown0A6ErrorsO9hashValueSivg",
                "mangledName": "$s10PLMarkdown0A6ErrorsO9hashValueSivg",
                "moduleName": "PLMarkdown",
                "implicit": true,
                "accessorKind": "get"
              }
            ]
          },
          {
            "kind": "Function",
            "name": "hash",
            "printedName": "hash(into:)",
            "children": [
              {
                "kind": "TypeNominal",
                "name": "Void",
                "printedName": "()"
              },
              {
                "kind": "TypeNominal",
                "name": "Hasher",
                "printedName": "Swift.Hasher",
                "paramValueOwnership": "InOut",
                "usr": "s:s6HasherV"
              }
            ],
            "declKind": "Func",
            "usr": "s:10PLMarkdown0A6ErrorsO4hash4intoys6HasherVz_tF",
            "mangledName": "$s10PLMarkdown0A6ErrorsO4hash4intoys6HasherVz_tF",
            "moduleName": "PLMarkdown",
            "implicit": true,
            "funcSelfKind": "NonMutating"
          }
        ],
        "declKind": "Enum",
        "usr": "s:10PLMarkdown0A6ErrorsO",
        "mangledName": "$s10PLMarkdown0A6ErrorsO",
        "moduleName": "PLMarkdown",
        "declAttributes": [
          "AccessControl"
        ],
        "conformances": [
          {
            "kind": "Conformance",
            "name": "Equatable",
            "printedName": "Equatable",
            "usr": "s:SQ",
            "mangledName": "$sSQ"
          },
          {
            "kind": "Conformance",
            "name": "Hashable",
            "printedName": "Hashable",
            "usr": "s:SH",
            "mangledName": "$sSH"
          },
          {
            "kind": "Conformance",
            "name": "Error",
            "printedName": "Error",
            "usr": "s:s5ErrorP",
            "mangledName": "$ss5ErrorP"
          },
          {
            "kind": "Conformance",
            "name": "Sendable",
            "printedName": "Sendable",
            "usr": "s:s8SendableP",
            "mangledName": "$ss8SendableP"
          }
        ]
      },
      {
        "kind": "TypeDecl",
        "name": "PLMarkdownHTMLRenderer",
        "printedName": "PLMarkdownHTMLRenderer",
        "children": [
          {
            "kind": "Function",
            "name": "astToHTML",
            "printedName": "astToHTML(_:options:)",
            "children": [
              {
                "kind": "TypeNominal",
                "name": "String",
                "printedName": "Swift.String",
                "usr": "s:SS"
              },
              {
                "kind": "TypeNominal",
                "name": "UnsafeMutablePointer",
                "printedName": "Swift.UnsafeMutablePointer<Libcmark.cmark_node>",
                "children": [
                  {
                    "kind": "TypeNominal",
                    "name": "cmark_node",
                    "printedName": "Libcmark.cmark_node",
                    "usr": "c:@S@cmark_node"
                  }
                ],
                "usr": "s:Sp"
              },
              {
                "kind": "TypeNominal",
                "name": "PLMarkdownOptions",
                "printedName": "PLMarkdown.PLMarkdownOptions",
                "hasDefaultArg": true,
                "usr": "s:10PLMarkdown0A7OptionsV"
              }
            ],
            "declKind": "Func",
            "usr": "s:10PLMarkdown0A12HTMLRendererV9astToHTML_7optionsSSSpySo10cmark_nodeVG_AA0A7OptionsVtKFZ",
            "mangledName": "$s10PLMarkdown0A12HTMLRendererV9astToHTML_7optionsSSSpySo10cmark_nodeVG_AA0A7OptionsVtKFZ",
            "moduleName": "PLMarkdown",
            "static": true,
            "declAttributes": [
              "AccessControl",
              "RawDocComment"
            ],
            "throwing": true,
            "funcSelfKind": "NonMutating"
          },
          {
            "kind": "Constructor",
            "name": "init",
            "printedName": "init()",
            "children": [
              {
                "kind": "TypeNominal",
                "name": "PLMarkdownHTMLRenderer",
                "printedName": "PLMarkdown.PLMarkdownHTMLRenderer",
                "usr": "s:10PLMarkdown0A12HTMLRendererV"
              }
            ],
            "declKind": "Constructor",
            "usr": "s:10PLMarkdown0A12HTMLRendererVACycfc",
            "mangledName": "$s10PLMarkdown0A12HTMLRendererVACycfc",
            "moduleName": "PLMarkdown",
            "implicit": true,
            "init_kind": "Designated"
          }
        ],
        "declKind": "Struct",
        "usr": "s:10PLMarkdown0A12HTMLRendererV",
        "mangledName": "$s10PLMarkdown0A12HTMLRendererV",
        "moduleName": "PLMarkdown",
        "declAttributes": [
          "AccessControl"
        ]
      },
      {
        "kind": "TypeDecl",
        "name": "NSAttributedString",
        "printedName": "NSAttributedString",
        "children": [
          {
            "kind": "Constructor",
            "name": "init",
            "printedName": "init(htmlString:)",
            "children": [
              {
                "kind": "TypeNominal",
                "name": "NSAttributedString",
                "printedName": "Foundation.NSAttributedString",
                "usr": "c:objc(cs)NSAttributedString"
              },
              {
                "kind": "TypeNominal",
                "name": "String",
                "printedName": "Swift.String",
                "usr": "s:SS"
              }
            ],
            "declKind": "Constructor",
            "usr": "s:So18NSAttributedStringC10PLMarkdownE04htmlB0ABSS_tKcfc",
            "mangledName": "$sSo18NSAttributedStringC10PLMarkdownE04htmlB0ABSS_tKcfc",
            "moduleName": "PLMarkdown",
            "declAttributes": [
              "Convenience",
              "RawDocComment"
            ],
            "isFromExtension": true,
            "throwing": true,
            "init_kind": "Convenience"
          }
        ],
        "declKind": "Class",
        "usr": "c:objc(cs)NSAttributedString",
        "moduleName": "Foundation",
        "isOpen": true,
        "intro_iOS": "3.2",
        "objc_name": "NSAttributedString",
        "declAttributes": [
          "Available",
          "ObjC",
          "NonSendable",
          "Dynamic"
        ],
        "superclassUsr": "c:objc(cs)NSObject",
        "isExternal": true,
        "inheritsConvenienceInitializers": true,
        "superclassNames": [
          "ObjectiveC.NSObject"
        ],
        "conformances": [
          {
            "kind": "Conformance",
            "name": "Equatable",
            "printedName": "Equatable",
            "usr": "s:SQ",
            "mangledName": "$sSQ"
          },
          {
            "kind": "Conformance",
            "name": "Hashable",
            "printedName": "Hashable",
            "usr": "s:SH",
            "mangledName": "$sSH"
          },
          {
            "kind": "Conformance",
            "name": "CVarArg",
            "printedName": "CVarArg",
            "usr": "s:s7CVarArgP",
            "mangledName": "$ss7CVarArgP"
          },
          {
            "kind": "Conformance",
            "name": "_KeyValueCodingAndObservingPublishing",
            "printedName": "_KeyValueCodingAndObservingPublishing",
            "usr": "s:10Foundation37_KeyValueCodingAndObservingPublishingP",
            "mangledName": "$s10Foundation37_KeyValueCodingAndObservingPublishingP"
          },
          {
            "kind": "Conformance",
            "name": "_KeyValueCodingAndObserving",
            "printedName": "_KeyValueCodingAndObserving",
            "usr": "s:10Foundation27_KeyValueCodingAndObservingP",
            "mangledName": "$s10Foundation27_KeyValueCodingAndObservingP"
          },
          {
            "kind": "Conformance",
            "name": "CustomStringConvertible",
            "printedName": "CustomStringConvertible",
            "usr": "s:s23CustomStringConvertibleP",
            "mangledName": "$ss23CustomStringConvertibleP"
          },
          {
            "kind": "Conformance",
            "name": "CustomDebugStringConvertible",
            "printedName": "CustomDebugStringConvertible",
            "usr": "s:s28CustomDebugStringConvertibleP",
            "mangledName": "$ss28CustomDebugStringConvertibleP"
          }
        ]
      },
      {
        "kind": "TypeDecl",
        "name": "String",
        "printedName": "String",
        "children": [
          {
            "kind": "Function",
            "name": "toHTML",
            "printedName": "toHTML(_:)",
            "children": [
              {
                "kind": "TypeNominal",
                "name": "String",
                "printedName": "Swift.String",
                "usr": "s:SS"
              },
              {
                "kind": "TypeNominal",
                "name": "PLMarkdownOptions",
                "printedName": "PLMarkdown.PLMarkdownOptions",
                "hasDefaultArg": true,
                "usr": "s:10PLMarkdown0A7OptionsV"
              }
            ],
            "declKind": "Func",
            "usr": "s:SS10PLMarkdownE6toHTMLySSAA0A7OptionsVKF",
            "mangledName": "$sSS10PLMarkdownE6toHTMLySSAA0A7OptionsVKF",
            "moduleName": "PLMarkdown",
            "declAttributes": [
              "AccessControl",
              "RawDocComment"
            ],
            "isFromExtension": true,
            "throwing": true,
            "funcSelfKind": "NonMutating"
          }
        ],
        "declKind": "Struct",
        "usr": "s:SS",
        "mangledName": "$sSS",
        "moduleName": "Swift",
        "declAttributes": [
          "Frozen"
        ],
        "isExternal": true,
        "conformances": [
          {
            "kind": "Conformance",
            "name": "Equatable",
            "printedName": "Equatable",
            "usr": "s:SQ",
            "mangledName": "$sSQ"
          },
          {
            "kind": "Conformance",
            "name": "Decodable",
            "printedName": "Decodable",
            "usr": "s:Se",
            "mangledName": "$sSe"
          },
          {
            "kind": "Conformance",
            "name": "Encodable",
            "printedName": "Encodable",
            "usr": "s:SE",
            "mangledName": "$sSE"
          },
          {
            "kind": "Conformance",
            "name": "CodingKeyRepresentable",
            "printedName": "CodingKeyRepresentable",
            "usr": "s:s22CodingKeyRepresentableP",
            "mangledName": "$ss22CodingKeyRepresentableP"
          },
          {
            "kind": "Conformance",
            "name": "_HasContiguousBytes",
            "printedName": "_HasContiguousBytes",
            "usr": "s:s19_HasContiguousBytesP",
            "mangledName": "$ss19_HasContiguousBytesP"
          },
          {
            "kind": "Conformance",
            "name": "CustomReflectable",
            "printedName": "CustomReflectable",
            "usr": "s:s17CustomReflectableP",
            "mangledName": "$ss17CustomReflectableP"
          },
          {
            "kind": "Conformance",
            "name": "_CustomPlaygroundQuickLookable",
            "printedName": "_CustomPlaygroundQuickLookable",
            "usr": "s:s30_CustomPlaygroundQuickLookableP",
            "mangledName": "$ss30_CustomPlaygroundQuickLookableP"
          },
          {
            "kind": "Conformance",
            "name": "TextOutputStream",
            "printedName": "TextOutputStream",
            "usr": "s:s16TextOutputStreamP",
            "mangledName": "$ss16TextOutputStreamP"
          },
          {
            "kind": "Conformance",
            "name": "TextOutputStreamable",
            "printedName": "TextOutputStreamable",
            "usr": "s:s20TextOutputStreamableP",
            "mangledName": "$ss20TextOutputStreamableP"
          },
          {
            "kind": "Conformance",
            "name": "Hashable",
            "printedName": "Hashable",
            "usr": "s:SH",
            "mangledName": "$sSH"
          },
          {
            "kind": "Conformance",
            "name": "Sendable",
            "printedName": "Sendable",
            "usr": "s:s8SendableP",
            "mangledName": "$ss8SendableP"
          },
          {
            "kind": "Conformance",
            "name": "_ExpressibleByBuiltinUnicodeScalarLiteral",
            "printedName": "_ExpressibleByBuiltinUnicodeScalarLiteral",
            "usr": "s:s41_ExpressibleByBuiltinUnicodeScalarLiteralP",
            "mangledName": "$ss41_ExpressibleByBuiltinUnicodeScalarLiteralP"
          },
          {
            "kind": "Conformance",
            "name": "_ExpressibleByBuiltinExtendedGraphemeClusterLiteral",
            "printedName": "_ExpressibleByBuiltinExtendedGraphemeClusterLiteral",
            "usr": "s:s51_ExpressibleByBuiltinExtendedGraphemeClusterLiteralP",
            "mangledName": "$ss51_ExpressibleByBuiltinExtendedGraphemeClusterLiteralP"
          },
          {
            "kind": "Conformance",
            "name": "_ExpressibleByBuiltinStringLiteral",
            "printedName": "_ExpressibleByBuiltinStringLiteral",
            "usr": "s:s34_ExpressibleByBuiltinStringLiteralP",
            "mangledName": "$ss34_ExpressibleByBuiltinStringLiteralP"
          },
          {
            "kind": "Conformance",
            "name": "ExpressibleByStringLiteral",
            "printedName": "ExpressibleByStringLiteral",
            "children": [
              {
                "kind": "TypeWitness",
                "name": "StringLiteralType",
                "printedName": "StringLiteralType",
                "children": [
                  {
                    "kind": "TypeNominal",
                    "name": "String",
                    "printedName": "Swift.String",
                    "usr": "s:SS"
                  }
                ]
              }
            ],
            "usr": "s:s26ExpressibleByStringLiteralP",
            "mangledName": "$ss26ExpressibleByStringLiteralP"
          },
          {
            "kind": "Conformance",
            "name": "ExpressibleByExtendedGraphemeClusterLiteral",
            "printedName": "ExpressibleByExtendedGraphemeClusterLiteral",
            "children": [
              {
                "kind": "TypeWitness",
                "name": "ExtendedGraphemeClusterLiteralType",
                "printedName": "ExtendedGraphemeClusterLiteralType",
                "children": [
                  {
                    "kind": "TypeNominal",
                    "name": "String",
                    "printedName": "Swift.String",
                    "usr": "s:SS"
                  }
                ]
              }
            ],
            "usr": "s:s43ExpressibleByExtendedGraphemeClusterLiteralP",
            "mangledName": "$ss43ExpressibleByExtendedGraphemeClusterLiteralP"
          },
          {
            "kind": "Conformance",
            "name": "ExpressibleByUnicodeScalarLiteral",
            "printedName": "ExpressibleByUnicodeScalarLiteral",
            "children": [
              {
                "kind": "TypeWitness",
                "name": "UnicodeScalarLiteralType",
                "printedName": "UnicodeScalarLiteralType",
                "children": [
                  {
                    "kind": "TypeNominal",
                    "name": "String",
                    "printedName": "Swift.String",
                    "usr": "s:SS"
                  }
                ]
              }
            ],
            "usr": "s:s33ExpressibleByUnicodeScalarLiteralP",
            "mangledName": "$ss33ExpressibleByUnicodeScalarLiteralP"
          },
          {
            "kind": "Conformance",
            "name": "CustomDebugStringConvertible",
            "printedName": "CustomDebugStringConvertible",
            "usr": "s:s28CustomDebugStringConvertibleP",
            "mangledName": "$ss28CustomDebugStringConvertibleP"
          },
          {
            "kind": "Conformance",
            "name": "CustomStringConvertible",
            "printedName": "CustomStringConvertible",
            "usr": "s:s23CustomStringConvertibleP",
            "mangledName": "$ss23CustomStringConvertibleP"
          },
          {
            "kind": "Conformance",
            "name": "BidirectionalCollection",
            "printedName": "BidirectionalCollection",
            "children": [
              {
                "kind": "TypeWitness",
                "name": "Element",
                "printedName": "Element",
                "children": [
                  {
                    "kind": "TypeNominal",
                    "name": "Character",
                    "printedName": "Swift.Character",
                    "usr": "s:SJ"
                  }
                ]
              },
              {
                "kind": "TypeWitness",
                "name": "Index",
                "printedName": "Index",
                "children": [
                  {
                    "kind": "TypeNominal",
                    "name": "Index",
                    "printedName": "Swift.String.Index",
                    "usr": "s:SS5IndexV"
                  }
                ]
              },
              {
                "kind": "TypeWitness",
                "name": "SubSequence",
                "printedName": "SubSequence",
                "children": [
                  {
                    "kind": "TypeNominal",
                    "name": "Substring",
                    "printedName": "Swift.Substring",
                    "usr": "s:Ss"
                  }
                ]
              },
              {
                "kind": "TypeWitness",
                "name": "Indices",
                "printedName": "Indices",
                "children": [
                  {
                    "kind": "TypeNominal",
                    "name": "DefaultIndices",
                    "printedName": "Swift.DefaultIndices<Swift.String>",
                    "children": [
                      {
                        "kind": "TypeNominal",
                        "name": "String",
                        "printedName": "Swift.String",
                        "usr": "s:SS"
                      }
                    ],
                    "usr": "s:SI"
                  }
                ]
              }
            ],
            "usr": "s:SK",
            "mangledName": "$sSK"
          },
          {
            "kind": "Conformance",
            "name": "Collection",
            "printedName": "Collection",
            "children": [
              {
                "kind": "TypeWitness",
                "name": "Element",
                "printedName": "Element",
                "children": [
                  {
                    "kind": "TypeNominal",
                    "name": "Character",
                    "printedName": "Swift.Character",
                    "usr": "s:SJ"
                  }
                ]
              },
              {
                "kind": "TypeWitness",
                "name": "Index",
                "printedName": "Index",
                "children": [
                  {
                    "kind": "TypeNominal",
                    "name": "Index",
                    "printedName": "Swift.String.Index",
                    "usr": "s:SS5IndexV"
                  }
                ]
              },
              {
                "kind": "TypeWitness",
                "name": "Iterator",
                "printedName": "Iterator",
                "children": [
                  {
                    "kind": "TypeNominal",
                    "name": "Iterator",
                    "printedName": "Swift.String.Iterator",
                    "usr": "s:SS8IteratorV"
                  }
                ]
              },
              {
                "kind": "TypeWitness",
                "name": "SubSequence",
                "printedName": "SubSequence",
                "children": [
                  {
                    "kind": "TypeNominal",
                    "name": "Substring",
                    "printedName": "Swift.Substring",
                    "usr": "s:Ss"
                  }
                ]
              },
              {
                "kind": "TypeWitness",
                "name": "Indices",
                "printedName": "Indices",
                "children": [
                  {
                    "kind": "TypeNominal",
                    "name": "DefaultIndices",
                    "printedName": "Swift.DefaultIndices<Swift.String>",
                    "children": [
                      {
                        "kind": "TypeNominal",
                        "name": "String",
                        "printedName": "Swift.String",
                        "usr": "s:SS"
                      }
                    ],
                    "usr": "s:SI"
                  }
                ]
              }
            ],
            "usr": "s:Sl",
            "mangledName": "$sSl"
          },
          {
            "kind": "Conformance",
            "name": "Sequence",
            "printedName": "Sequence",
            "children": [
              {
                "kind": "TypeWitness",
                "name": "Element",
                "printedName": "Element",
                "children": [
                  {
                    "kind": "TypeNominal",
                    "name": "Character",
                    "printedName": "Swift.Character",
                    "usr": "s:SJ"
                  }
                ]
              },
              {
                "kind": "TypeWitness",
                "name": "Iterator",
                "printedName": "Iterator",
                "children": [
                  {
                    "kind": "TypeNominal",
                    "name": "Iterator",
                    "printedName": "Swift.String.Iterator",
                    "usr": "s:SS8IteratorV"
                  }
                ]
              }
            ],
            "usr": "s:ST",
            "mangledName": "$sST"
          },
          {
            "kind": "Conformance",
            "name": "Comparable",
            "printedName": "Comparable",
            "usr": "s:SL",
            "mangledName": "$sSL"
          },
          {
            "kind": "Conformance",
            "name": "StringProtocol",
            "printedName": "StringProtocol",
            "children": [
              {
                "kind": "TypeWitness",
                "name": "UTF8View",
                "printedName": "UTF8View",
                "children": [
                  {
                    "kind": "TypeNominal",
                    "name": "UTF8View",
                    "printedName": "Swift.String.UTF8View",
                    "usr": "s:SS8UTF8ViewV"
                  }
                ]
              },
              {
                "kind": "TypeWitness",
                "name": "UTF16View",
                "printedName": "UTF16View",
                "children": [
                  {
                    "kind": "TypeNominal",
                    "name": "UTF16View",
                    "printedName": "Swift.String.UTF16View",
                    "usr": "s:SS9UTF16ViewV"
                  }
                ]
              },
              {
                "kind": "TypeWitness",
                "name": "UnicodeScalarView",
                "printedName": "UnicodeScalarView",
                "children": [
                  {
                    "kind": "TypeNominal",
                    "name": "UnicodeScalarView",
                    "printedName": "Swift.String.UnicodeScalarView",
                    "usr": "s:SS17UnicodeScalarViewV"
                  }
                ]
              },
              {
                "kind": "TypeWitness",
                "name": "SubSequence",
                "printedName": "SubSequence",
                "children": [
                  {
                    "kind": "TypeNominal",
                    "name": "Substring",
                    "printedName": "Swift.Substring",
                    "usr": "s:Ss"
                  }
                ]
              }
            ],
            "usr": "s:Sy",
            "mangledName": "$sSy"
          },
          {
            "kind": "Conformance",
            "name": "ExpressibleByStringInterpolation",
            "printedName": "ExpressibleByStringInterpolation",
            "children": [
              {
                "kind": "TypeWitness",
                "name": "StringInterpolation",
                "printedName": "StringInterpolation",
                "children": [
                  {
                    "kind": "TypeNominal",
                    "name": "DefaultStringInterpolation",
                    "printedName": "Swift.DefaultStringInterpolation",
                    "usr": "s:s26DefaultStringInterpolationV"
                  }
                ]
              }
            ],
            "usr": "s:s32ExpressibleByStringInterpolationP",
            "mangledName": "$ss32ExpressibleByStringInterpolationP"
          },
          {
            "kind": "Conformance",
            "name": "LosslessStringConvertible",
            "printedName": "LosslessStringConvertible",
            "usr": "s:s25LosslessStringConvertibleP",
            "mangledName": "$ss25LosslessStringConvertibleP"
          },
          {
            "kind": "Conformance",
            "name": "RangeReplaceableCollection",
            "printedName": "RangeReplaceableCollection",
            "children": [
              {
                "kind": "TypeWitness",
                "name": "SubSequence",
                "printedName": "SubSequence",
                "children": [
                  {
                    "kind": "TypeNominal",
                    "name": "Substring",
                    "printedName": "Swift.Substring",
                    "usr": "s:Ss"
                  }
                ]
              }
            ],
            "usr": "s:Sm",
            "mangledName": "$sSm"
          },
          {
            "kind": "Conformance",
            "name": "MirrorPath",
            "printedName": "MirrorPath",
            "usr": "s:s10MirrorPathP",
            "mangledName": "$ss10MirrorPathP"
          },
          {
            "kind": "Conformance",
            "name": "_ObjectiveCBridgeable",
            "printedName": "_ObjectiveCBridgeable",
            "children": [
              {
                "kind": "TypeWitness",
                "name": "_ObjectiveCType",
                "printedName": "_ObjectiveCType",
                "children": [
                  {
                    "kind": "TypeNominal",
                    "name": "NSString",
                    "printedName": "Foundation.NSString",
                    "usr": "c:objc(cs)NSString"
                  }
                ]
              }
            ],
            "usr": "s:s21_ObjectiveCBridgeableP",
            "mangledName": "$ss21_ObjectiveCBridgeableP"
          },
          {
            "kind": "Conformance",
            "name": "CVarArg",
            "printedName": "CVarArg",
            "usr": "s:s7CVarArgP",
            "mangledName": "$ss7CVarArgP"
          }
        ]
      }
    ],
    "json_format_version": 8
  },
  "ConstValues": []
}